[2021-03-03 10:44:06] local.INFO: Login Activity | User: [9961 | cb014] | ipAddress: 122.179.129.167  
[2021-03-03 12:19:15] local.INFO: Login Activity | User: [9948 | cb02] | ipAddress: 122.179.129.167  
[2021-03-03 12:24:12] local.INFO: Login Activity | User: [9953 | cb07] | ipAddress: 122.179.129.167  
[2021-03-03 12:31:58] local.INFO: Login Activity | User: [9948 | cb02] | ipAddress: 122.179.129.167  
[2021-03-03 12:33:28] local.INFO: Login Activity | User: [9948 | cb02] | ipAddress: 122.179.129.167  
[2021-03-03 13:03:20] local.INFO: Login Activity | User: [9991 | cb020] | ipAddress: 122.179.129.167  
[2021-03-03 16:30:30] local.INFO: Login Activity | User: [9950 | cb04] | ipAddress: 122.179.129.167  
[2021-03-03 17:10:53] local.INFO: Login Activity | User: [9951 | cb05] | ipAddress: 122.179.129.167  
[2021-03-03 19:21:15] local.INFO: Login Activity | User: [9966 | cb019] | ipAddress: 5.29.216.130  
